$ANSIBLE_VAULT;1.1;AES256
34626539626436663461343736373832653462326263356261353138366438386265613833313538
3562656435343761353539623464303764396535643635650a386532353762306332656666363432
66336563323835636463663063656164623037343964303739326562366166626331313666386239
3932623365616262390a313865633836666664646233303333363065363665343264363637353439
37373761353735313330633130386336353031633235623864366433633939386538653237346664
65303638623434663662346166653061313963663265653863633163653263306564323936323265
66633333326432343236366564646330333430346161393935346437666134346439316631343264
66396232636139346464303935386131346665343236323463366464623539326366376166303666
62373833656534313939643432333937633064616431353236346639616639363431643633393631
38353965623530353563636634646336373234613166363266333534623630626633613162633666
36333937393239616134303561353038333831386230643364363135643931303962393963363037
64373463633162353065646439366661643437646237366337656232363334656437343564633632
39393439336536343761623333646639663931346464316435336337346431653734636666373135
36346566326533376431396138386163333839323132653861643461666435636332616439666639
65386562626264653562623165316533356238393266306361353465376233346531643033356236
61316434353132373833393935306436346263316331316566663231646333396436656237306137
63653737323964653633386465613036333463376362343832353266366337396566396562303031
34633632323332343066333033613761633264383738303264353034313931346530663663306566
35656438346630653465363530346234303464386138333264643031386635393637316464616563
32313535313137623937363361646465363436336561313962396266363936646630376133383232
64363961666536616531303936386365363866366466393232376362613539333438326137623732
30623366366438353833643030353239633135323238366134616539623430393637393631353933
33336432366563303834393539396265306662373730623931373063346530376339383162313030
31653738663439613163316239366333326535636265356232653264633836386165646661366231
66396539383839646435623839356430313230613538303664343266386333353464353033343132
35653337353138383537663532653338303139316666383966656435383865626537653666666562
34333338353861393866333930393665326362393139623539656561616535376538333865626430
62303735363632613961393365313836356361353361643763366564326238393530643438353332
63366561663531663138353531643865363766373063626635626636313430326132353064343335
34356266376462333134613136373932646635303132613830653332323034396566386437653035
30383664356536376361333364623536633064653736373933323033633138653133373136336332
33623466336337386134336233346530396135336634373363656465353738623434326136613964
36356430653231353061393137353361656266346662616238376538613163643231366539306463
33303839363237363862623336666535306630623834663032373463346537323736653766306333
36636431306663623737633935663230373163313963626332653230633165353235346539616264
66316535663639626336396238373136396263326666386137343830353266316162383030393834
31383962633032383932636163376362336537626233353139653032616161303032383433343166
65393562323362393733616263333331386561333635663966646134373465306662383261326466
31666237373932393063393730333531343162636134663232313932633466383031346261653163
32646339623463653638616534353262656539633235633066366561326334616139306534333962
38303634336335326363316335363961666437366136393735346665663631643463366662316531
65346337646339313335306233626639353832666562626532663136626538376265636466363632
30663335383638313430383535386163343364386632653633356136313161646531613461303830
32396630336534373932636464663236396166373839623733303030633966366437623834343037
31373030613036313530656238373139656332626133663031663135663934313763363737663038
33653635303533306232306363393261376663363032313261376364613365386336396462363833
38666536646537663065393062646663633633303536343462636630643939616165343732326433
65313362613435633262316630333864396538376234363930373633333364633934306365636531
35373963636235633737333164396562383763656663626263616633636636643632626337633636
31353731316338343134343933316661353237663535646636646634316566656263376361653438
34323632643333373762613466303037363132343736373737343362616466623932646134616261
33303834633361633838643365666163393533663737663031313262303032303962393063323563
38623339346232363833366536323561383865636636636234393333306465313062386232326230
38613131326239383933653132653835396335353761396537383938306136373034373561366565
39333630636566663034386238336536383634306462313861633430373738396337346332356363
30633632663065313662363661356138636338653166623436383666306536363761383366333761
35633064343637616337323534393565363237303335396463616238333234346463343364386331
61613066313937306563636338646631386438326663323330306261306266373766323437343666
39363162313534396430616262346363303465653638323766333562366633353365613165343438
65346639333139383362373764663230363036616432656130333064303861346465626336346532
62663233623932366634346262653134626265616638343637666639613863303236383466326337
66373563616463306237613931306464323531666536633730646431623839323162323638333131
66633464343961333861633566333136643166313661356465616531303666383465343932383338
38643863356135636538366535626262393064613833326134313434633536653433646334383061
63633539323739353433383864326266626162333564386532336364633562313863323837613739
62306633663262386133383538303861636336643566626231646537376263653665616665626133
35323066666533373138363733356166363239333933613938666630623865373863323338623661
31313961373537333535366236366437636364356135393862376130666331646366396230343933
30346439656239636564323064663065653766346130656237373565643866326238633239353562
38353761633466643966666631323836613762663162383863653537353862636464616537636533
30626235323734613135303761333236313732343333356561633266633636623062626361666365
62356238303366363731333535396636326166373436623534326333623039663032643837326239
36356339343566373365373861313639333536623332363039333239316139393165353736316332
38306262373433613837633961383532623931373334323264346261383836343430343631663934
35396261613635376436633864633337326437313334393230613164313336613736316561633638
34346564623861656461
